{
	"classList" : 
	[
		{ "Id" : 1, "Name" : "검사", "Gender" : true, "Race" : "톨맨" },
		{ "Id" : 2, "Name" : "궁수", "Gender" : false, "Race" : "엘프" },
		{ "Id" : 3, "Name" : "도적", "Gender" : true, "Race" : "하프풋" },
		{ "Id" : 4, "Name" : "프리스트", "Gender" : false, "Race" : "톨맨" }
	]
}